…
df.joined
```

```
## # A tibble: 360 x 4
##     NMID    TIME IPRED_MRG IPRED_NM
##    <dbl>   <dbl>     <dbl>    <dbl>
##  1     1   0.302      173.     173.
##  2     1   2.91       338.     338.
##  3     1   3.14       326.     326.
##  4     1   9.94       138.     138.
##  5     1  18.0        102.     102.
##  6     1 168.         363.     363.
##  7     1 170.         728.     728.
##  8     1 178.         466.     466.
##  9     1 188.         389.     390.
## 10     2   0.438      190.     190.
## # … with 350 more rows
```
…
save(df.nm.vpc.output, file = "nm/vpc/vpc.run006.Rdata")
```


```r
load("nm/vpc/vpc.run006.Rdata")

df.nm.vpc.output
```

```
## # A tibble: 180,000 x 6
##       ID   MDV    TIME    DV  PRED   REP
##    <dbl> <dbl>   <dbl> <dbl> <dbl> <int>
##  1     1     0   0.302  173.  161.     1
##  2     1     0   2.91   324.  383.     1
##  3     1     0   3.14   326.  373.     1
##  4     1     0   9.94   166.  162.     1
##  5     1     0  18.0    113.  104.     1
##  6     1     0 168.     281.  309.     1
##  7     1     0 170.     641.  701.     1
##  8     1     0 178.     372.  434.     1
##  9     1     0 188.     294.  331.     1
## 10     2     0   0.438  289.  248.     1
## # … with 179,990 more rows
```
…
save(df.nmsim.output, file = "nm/vpc/nmsim.run006_sim.Rdata")
```


```r
load("nm/vpc/nmsim.run006_sim.Rdata")

df.nmsim.output
```

```
## # A tibble: 180,000 x 15
##       ID  NMID    TIME    DV IPRED   CMT    WT   SEX   AMT  EVID  DV_1  PRED
##    <dbl> <dbl>   <dbl> <dbl> <dbl> <dbl> <dbl> <dbl> <dbl> <dbl> <dbl> <dbl>
##  1     1     1   0.302  216.  220.     2    52     0     0     0  216.  161.
##  2     1     1   2.91   387.  399.     2    52     0     0     0  387.  382.
##  3     1     1   3.14   377.  385.     2    52     0     0     0  377.  372.
##  4     1     1   9.94   172.  172.     2    52     0     0     0  172.  162.
##  5     1     1  18.0    131.  123.     2    52     0     0     0  131.  104.
##  6     1     1 168.     489.  458.     2    52     0     0     0  489.  310.
##  7     1     1 170.     924.  889.     2    52     0     0     0  924.  702.
##  8     1     1 178.     602.  587.     2    52     0     0     0  602.  435.
##  9     1     1 188.     495.  492.     2    52     0     0     0  495.  332.
## 10     2     2   0.438  184.  175.     2    73     1     0     0  184.  248.
## # … with 179,990 more rows, and 3 more variables: RES <dbl>, WRES <dbl>,
## #   REP <int>
```
…
