Use mrgsolve to replace NONMEM simulations
…
This can be used for showing PK variability or as input for E-R predictions

exposure.metrics.dose.range <- 
  df.mrgsim.dose.range %>% 
  filter(TIME >= max(dosetime),
         TIME <= max(dosetime) + 24) %>% 
  group_by(NMID, NAMT) %>% 
  summarize(AUCss = max(AUCCENT) - min(AUCCENT),
            Cmaxss = max(IPRED),
            Cminss = min(IPRED),
            .groups = "drop")

exposure.metrics.dose.range

## # A tibble: 3,000 x 5
##     NMID NAMT  AUCss Cmaxss Cminss
##    <dbl> <fct> <dbl>  <dbl>  <dbl>
##  1     1 600   2421.   219.   52.9
##  2     2 600   3903.   288.   96.9
##  3     3 600   4750.   319.  132. 
##  4     4 600   3037.   211.   80.4
##  5     5 600   5466.   384.  161. 
##  6     6 600   5096.   395.  151. 
##  7     7 600   2923.   254.   64.9
##  8     8 600   7162.   422.  217. 
##  9     9 600   7186.   443.  222. 
## 10    10 600   4365.   345.  108. 
## #  with 2,990 more rows
…
exposure.metrics.ipred.prot.dose

## # A tibble: 40 x 4
##     NMID  AUCss Cmaxss Cminss
##    <dbl>  <dbl>  <dbl>  <dbl>
##  1     1  9123.   428.  337. 
##  2     2  3929.   197.  135. 
##  3     3 10316.   475.  390. 
##  4     4 10215.   474.  381. 
##  5     5  4382.   222.  149. 
##  6     6  3530.   179.  121. 
##  7     7  5381.   262.  191. 
##  8     8  2720.   149.   83.7
##  9     9  4493.   230.  150. 
## 10    10  7514.   368.  264. 
## #  with 30 more rows
…
